<?xml version="1.0" encoding="utf-8"?>
<!-- Generator: Adobe Illustrator 14.0.0, SVG Export Plug-In  -->
<!DOCTYPE svg PUBLIC "-//W3C//DTD SVG 1.1//EN" "http://www.w3.org/Graphics/SVG/1.1/DTD/svg11.dtd" [
	<!ENTITY ns_flows "http://ns.adobe.com/Flows/1.0/">
]>
<svg version="1.1"
	 xmlns="http://www.w3.org/2000/svg" xmlns:xlink="http://www.w3.org/1999/xlink" xmlns:a="http://ns.adobe.com/AdobeSVGViewerExtensions/3.0/"
	 x="0px" y="0px" width="500px" height="227px" viewBox="0 0 500 227" enable-background="new 0 0 500 227" xml:space="preserve">
<defs>
</defs>
<path fill="#00B5CC" d="M4.164,0.489h8.33v24.906h10.288V0.489h8.33v58.142h-8.33V32.744H12.494v25.887h-8.33V0.489z"/>
<path fill="#00B5CC" d="M40.507,14.21C40.507,4.736,47.692,0,54.47,0c6.778,0,13.964,4.736,13.964,14.21v30.701
	c0,9.473-7.186,14.209-13.964,14.209c-6.777,0-13.963-4.736-13.963-14.209V14.21z M48.834,44.911c0,4.001,2.615,5.879,5.636,5.879
	c3.022,0,5.636-1.878,5.636-5.879V14.21c0-4.001-2.613-5.88-5.636-5.88c-3.021,0-5.636,1.879-5.636,5.88V44.911z"/>
<path fill="#00B5CC" d="M111.395,58.631h-7.84l-6.37-37.727h-0.163l-6.287,37.727h-7.839L74.239,0.489h8.818L87.223,37.4h0.163
	l6.533-36.911h6.369l6.776,37.809h0.165l4.001-37.809h8.819L111.395,58.631z"/>
<path fill="#00B5CC" d="M171.011,45.646c0,7.187-5.797,13.474-13.228,13.474c-6.369,0-13.719-3.102-13.719-13.718v-32.01
	C144.064,5.798,149.536,0,157.621,0c7.675,0,13.39,5.798,13.39,13.882v3.266h-8.328v-2.776c0-3.266-1.959-6.041-5.145-6.041
	c-4.164,0-5.144,2.857-5.144,6.776v29.725c0,3.348,1.306,5.959,5.063,5.959c2.286,0,5.226-1.305,5.226-5.879v-2.858h8.328V45.646z"
	/>
<path fill="#00B5CC" d="M189.063,0.489h6.94l12.983,58.142h-8.329l-2.45-12.493h-11.351l-2.449,12.493h-8.33L189.063,0.489z
	 M192.574,17.231h-0.164l-4.083,21.066h8.33L192.574,17.231z"/>
<path fill="#00B5CC" d="M214.789,0.489h8.003l12.575,35.032h0.163V0.489h8.33v58.142h-7.841l-12.738-34.95h-0.163v34.95h-8.329
	V0.489z"/>
<path fill="#00B5CC" d="M279.877,0.489h6.941l12.982,58.142h-8.328l-2.45-12.493h-11.351l-2.449,12.493h-8.33L279.877,0.489z
	 M283.389,17.231h-0.164l-4.084,21.066h8.331L283.389,17.231z"/>
<path fill="#00B5CC" d="M31.112,91.789h-8.33V89.91c0-3.837-1.633-7.022-5.879-7.022c-4.573,0-5.635,3.675-5.635,7.512
	c0,4.491,0.409,6.044,4.736,7.759l6.369,2.532c7.349,2.773,8.738,7.431,8.738,15.922c0,9.799-3.594,17.065-14.373,17.065
	c-8.084,0-14.208-5.959-14.208-13.798v-3.104h8.328v2.612c0,3.021,1.635,5.962,5.88,5.962c5.635,0,6.043-3.348,6.043-8.656
	c0-6.207-0.734-7.187-4.817-8.819l-5.961-2.448c-7.187-2.941-9.064-7.679-9.064-14.945c0-8.819,4.735-15.924,14.291-15.924
	c8.329,0,13.882,6.697,13.882,13.148V91.789z"/>
<path fill="#00B5CC" d="M39.362,75.049h8.33v24.906H57.98V75.049h8.33v58.142h-8.33v-25.887H47.692v25.887h-8.33V75.049z"/>
<path fill="#00B5CC" d="M75.705,88.767c0-9.473,7.186-14.209,13.964-14.209c6.777,0,13.964,4.736,13.964,14.209v30.704
	c0,9.473-7.187,14.207-13.964,14.207c-6.778,0-13.964-4.734-13.964-14.207V88.767z M84.034,119.471c0,4.001,2.612,5.88,5.635,5.88
	c3.021,0,5.635-1.879,5.635-5.88V88.767c0-4.001-2.613-5.879-5.635-5.879c-3.022,0-5.635,1.878-5.635,5.879V119.471z"/>
<path fill="#00B5CC" d="M127.903,133.19h-7.348l-11.842-58.142h8.82l6.614,40.582h0.164l6.695-40.582h8.818L127.903,133.19z"/>
<path fill="#00B5CC" d="M146.853,75.049h24.825v7.839h-16.495v17.067h14.371v7.838h-14.371v17.067h16.495v8.33h-24.825V75.049z"/>
<path fill="#00B5CC" d="M179.112,75.049h8.329v49.812h16.495v8.33h-24.824V75.049z"/>
<path fill="#00B5CC" d="M255.059,120.206c0,7.185-5.797,13.472-13.228,13.472c-6.369,0-13.719-3.102-13.719-13.718V87.952
	c0-7.595,5.471-13.395,13.554-13.395c7.678,0,13.393,5.8,13.393,13.882v3.268h-8.328v-2.776c0-3.266-1.96-6.043-5.145-6.043
	c-4.165,0-5.146,2.857-5.146,6.779v29.722c0,3.35,1.308,5.962,5.063,5.962c2.285,0,5.227-1.308,5.227-5.88v-2.858h8.328V120.206z"/>
<path fill="#00B5CC" d="M263.882,75.049h8.331v24.906H282.5V75.049h8.331v58.142H282.5v-25.887h-10.287v25.887h-8.331V75.049z"/>
<path fill="#00B5CC" d="M309.943,75.049h6.941l12.983,58.142h-8.33l-2.449-12.495h-11.351l-2.449,12.495h-8.331L309.943,75.049z
	 M313.455,91.789h-0.164l-4.083,21.068h8.33L313.455,91.789z"/>
<path fill="#00B5CC" d="M335.669,75.049h8.003l12.576,35.03h0.163v-35.03h8.327v58.142h-7.837l-12.739-34.95h-0.163v34.95h-8.33
	V75.049z"/>
<path fill="#00B5CC" d="M373.807,88.767c0-9.473,7.187-14.209,13.965-14.209c6.777,0,13.963,4.736,13.963,14.209v2.94h-8.328v-2.94
	c0-4.001-2.613-5.879-5.635-5.879c-3.022,0-5.634,1.878-5.634,5.879v30.704c0,4.001,2.611,5.88,5.634,5.88
	c3.021,0,5.635-1.879,5.635-5.88v-10.942h-6.615v-7.351h14.943v18.293c0,9.473-7.186,14.207-13.963,14.207
	c-6.778,0-13.965-4.734-13.965-14.207V88.767z"/>
<path fill="#00B5CC" d="M411.13,75.049h24.824v7.839h-16.495v17.067h14.371v7.838h-14.371v17.067h16.495v8.33H411.13V75.049z"/>
<path fill="#00B5CC" d="M9.636,153.475H0v-7.84h27.601v7.84h-9.636v50.301H9.636V153.475z"/>
<path fill="#00B5CC" d="M33.318,145.635h8.329v24.905h10.289v-24.905h8.33v58.141h-8.33v-25.885H41.647v25.885h-8.329V145.635z"/>
<path fill="#00B5CC" d="M70.152,145.635h24.823v7.84H78.48v17.065h14.372v7.841H78.48v17.067h16.495v8.327H70.152V145.635z"/>
<path fill="#00B5CC" d="M154.185,203.775h-7.839l-6.371-37.724h-0.162l-6.287,37.724h-7.841l-8.654-58.141h8.818l4.165,36.91h0.163
	l6.533-36.91h6.369l6.776,37.808h0.164l4.001-37.808h8.82L154.185,203.775z"/>
<path fill="#00B5CC" d="M168.646,159.354c0-9.471,7.186-14.207,13.964-14.207s13.964,4.736,13.964,14.207v30.703
	c0,9.474-7.186,14.21-13.964,14.21s-13.964-4.736-13.964-14.21V159.354z M176.975,190.058c0,4.001,2.614,5.88,5.635,5.88
	c3.022,0,5.635-1.879,5.635-5.88v-30.703c0-4.001-2.612-5.88-5.635-5.88c-3.021,0-5.635,1.879-5.635,5.88V190.058z"/>
<path fill="#00B5CC" d="M205.968,145.635h13.391c9.882,0,14.701,5.8,14.701,17.067c0,6.694-1.879,11.596-7.188,14.535l8.983,26.538
	h-8.819l-7.757-24.823h-4.981v24.823h-8.33V145.635z M214.298,171.604h4.736c5.798,0,6.695-3.266,6.695-9.065
	c0-5.88-0.98-9.063-7.104-9.063h-4.328V171.604z"/>
<path fill="#00B5CC" d="M242.8,145.635h8.33v49.813h16.495v8.327H242.8V145.635z"/>
<path fill="#00B5CC" d="M275.06,145.635h12.331c9.392,0,14.617,5.636,14.617,15.026v27.192c0,10.778-5.553,15.922-15.352,15.922
	H275.06V145.635z M283.39,195.938h3.838c4.655,0,6.45-2.286,6.45-7.267v-28.01c0-4.574-1.551-7.187-6.45-7.187h-3.838V195.938z"/>
<path fill="#00B5CC" d="M310.586,157.558c0-6.858,5.635-12.41,12.576-12.41c4,0,7.431,1.714,9.636,4.652
	c2.204,2.941,2.775,4.982,2.775,9.965c0,5.552-0.244,7.51-1.307,9.309l-5.634,9.633c-0.735,1.307-1.388,2.696-1.388,4.165v6.533
	h-8.33v-7.592c0-2.371,0.816-4.575,2.041-6.615l5.227-8.494c0.816-1.387,1.063-3.102,1.063-4.736v-4.327
	c0-2.286-1.797-4.165-4.083-4.165c-1.961,0-4.247,1.469-4.247,4.165v4.736h-8.329V157.558z M318.915,195.448h8.33v8.327h-8.33
	V195.448z"/>
<polygon fill="#FF6F28" points="500.475,176.94 451.234,126.571 451.234,148.253 371.88,148.253 371.88,208.485 451.234,208.485 
	451.234,227.31 "/>
<path fill="#FFFFFF" d="M377.137,169.634h2.212v13.23h4.382v2.211h-6.594V169.634z"/>
<path fill="#FFFFFF" d="M385.703,169.634h6.592v2.083h-4.381v4.532h3.817v2.08h-3.817v4.535h4.381v2.211h-6.592V169.634z"/>
<path fill="#FFFFFF" d="M395.72,171.717h-2.558v-2.083h7.329v2.083h-2.559v13.358h-2.213V171.717z"/>
<path fill="#FFFFFF" d="M401.878,169.634h2.212v2.213l-2.212,1.604V169.634z"/>
<path fill="#FFFFFF" d="M413.739,174.083h-2.211v-0.501c0-1.02-0.435-1.865-1.563-1.865c-1.214,0-1.495,0.977-1.495,1.996
	c0,1.191,0.108,1.604,1.257,2.058l1.692,0.674c1.951,0.737,2.32,1.974,2.32,4.229c0,2.601-0.954,4.532-3.817,4.532
	c-2.146,0-3.772-1.584-3.772-3.666v-0.824h2.212v0.695c0,0.802,0.433,1.582,1.561,1.582c1.497,0,1.606-0.889,1.606-2.298
	c0-1.648-0.195-1.909-1.282-2.342l-1.582-0.651c-1.907-0.781-2.406-2.038-2.406-3.968c0-2.342,1.257-4.229,3.795-4.229
	c2.212,0,3.687,1.778,3.687,3.491V174.083z"/>
<path fill="#FFFFFF" d="M420.503,169.634h6.593v2.083h-4.38v4.683h3.816v2.083h-3.816v6.593h-2.213V169.634z"/>
<path fill="#FFFFFF" d="M429.134,169.634h2.211v15.441h-2.211V169.634z"/>
<path fill="#FFFFFF" d="M433.947,169.634h2.125l3.339,9.303h0.043v-9.303h2.212v15.441h-2.081l-3.383-9.282h-0.043v9.282h-2.212
	V169.634z"/>
<path fill="#FFFFFF" d="M444.203,169.634h3.274c2.494,0,3.881,1.498,3.881,3.992v7.22c0,2.862-1.474,4.229-4.076,4.229h-3.079
	V169.634z M446.415,182.993h1.02c1.234,0,1.713-0.607,1.713-1.93v-7.438c0-1.214-0.412-1.909-1.713-1.909h-1.02V182.993z"/>
<path fill="#FFFFFF" d="M458.427,173.278c0-2.515,1.909-3.772,3.709-3.772c1.799,0,3.709,1.258,3.709,3.772v8.155
	c0,2.514-1.91,3.772-3.709,3.772c-1.8,0-3.709-1.259-3.709-3.772V173.278z M460.641,181.434c0,1.061,0.692,1.56,1.495,1.56
	c0.802,0,1.496-0.499,1.496-1.56v-8.155c0-1.062-0.694-1.562-1.496-1.562c-0.803,0-1.495,0.5-1.495,1.562V181.434z"/>
<path fill="#FFFFFF" d="M475.492,181.606c0,2.016-1.604,3.6-3.578,3.6c-1.973,0-3.578-1.584-3.578-3.6v-11.973h2.212v11.755
	c0,1.086,0.586,1.604,1.366,1.604c0.781,0,1.366-0.519,1.366-1.604v-11.755h2.212V181.606z"/>
<path fill="#FFFFFF" d="M479.567,171.717h-2.558v-2.083h7.329v2.083h-2.558v13.358h-2.214V171.717z"/>
</svg>
